cpu/mips.vcd
$version Generated by VerilatedVcd $end
$date Sat Jun 23 12:39:52 2018
 $end
$timescale   1ns $end

 $scope module TOP $end
  $var wire  1 g clk $end
  $var wire  1 h rst $end
  $scope module mips $end
   $var wire  1 g clk $end
   $var wire  8 7 ex_aluop_i [7:0] $end
   $var wire  3 8 ex_alusel_i [2:0] $end
   $var wire 32 9 ex_reg1_i [31:0] $end
   $var wire 32 : ex_reg2_i [31:0] $end
   $var wire  5 < ex_wd_i [4:0] $end
   $var wire  5 < ex_wd_o [4:0] $end
   $var wire 32 ( ex_wdata_o [31:0] $end
   $var wire  1 ; ex_wreg_i $end
   $var wire  1 ; ex_wreg_o $end
   $var wire  8 $ id_aluop_o [7:0] $end
   $var wire  3 % id_alusel_o [2:0] $end
   $var wire 32 6 id_inst_i [31:0] $end
   $var wire 32 5 id_pc_i [31:0] $end
   $var wire 32 i id_reg1_o [31:0] $end
   $var wire 32 j id_reg2_o [31:0] $end
   $var wire  5 ' id_wd_o [4:0] $end
   $var wire  1 & id_wreg_o $end
   $var wire  5 > mem_wd_i [4:0] $end
   $var wire  5 * mem_wd_o [4:0] $end
   $var wire 32 ? mem_wdata_i [31:0] $end
   $var wire 32 + mem_wdata_o [31:0] $end
   $var wire  1 = mem_wreg_i $end
   $var wire  1 ) mem_wreg_o $end
   $var wire 32 3 pc [31:0] $end
   $var wire  5 . reg1_addr [4:0] $end
   $var wire 32 k reg1_data [31:0] $end
   $var wire  1 , reg1_read $end
   $var wire  5 / reg2_addr [4:0] $end
   $var wire 32 l reg2_data [31:0] $end
   $var wire  1 - reg2_read $end
   $var wire  1 4 rom_ce $end
   $var wire 32 # rom_data [31:0] $end
   $var wire  1 h rst $end
   $var wire  5 A wb_wd_i [4:0] $end
   $var wire 32 B wb_wdata_i [31:0] $end
   $var wire  1 @ wb_wreg_i $end
   $scope module ex0 $end
    $var wire  8 7 aluop_i [7:0] $end
    $var wire  3 8 alusel_i [2:0] $end
    $var wire 32 m logicout [31:0] $end
    $var wire 32 9 reg1_i [31:0] $end
    $var wire 32 : reg2_i [31:0] $end
    $var wire  1 h rst $end
    $var wire  5 < wd_i [4:0] $end
    $var wire  5 < wd_o [4:0] $end
    $var wire 32 ( wdata_o [31:0] $end
    $var wire  1 ; wreg_i $end
    $var wire  1 ; wreg_o $end
   $upscope $end
   $scope module ex_mem0 $end
    $var wire  1 g clk $end
    $var wire  5 < ex_wd [4:0] $end
    $var wire 32 ( ex_wdata [31:0] $end
    $var wire  1 ; ex_wreg $end
    $var wire  5 > mem_wd [4:0] $end
    $var wire 32 ? mem_wdata [31:0] $end
    $var wire  1 = mem_wreg $end
    $var wire  1 h rst $end
   $upscope $end
   $scope module id0 $end
    $var wire  8 $ aluop_o [7:0] $end
    $var wire  3 % alusel_o [2:0] $end
    $var wire  5 < ex_wd_i [4:0] $end
    $var wire 32 ( ex_wdata_i [31:0] $end
    $var wire  1 ; ex_wreg_i $end
    $var wire 32 1 imm [31:0] $end
    $var wire 32 6 inst_i [31:0] $end
    $var wire  1 2 instvalid $end
    $var wire  5 * mem_wd_i [4:0] $end
    $var wire 32 + mem_wdata_i [31:0] $end
    $var wire  1 0 mem_wreg_i $end
    $var wire  6 C op [5:0] $end
    $var wire  5 D op2 [4:0] $end
    $var wire  6 E op3 [5:0] $end
    $var wire  5 F op4 [4:0] $end
    $var wire 32 5 pc_i [31:0] $end
    $var wire  5 . reg1_addr_o [4:0] $end
    $var wire 32 k reg1_data_i [31:0] $end
    $var wire 32 i reg1_o [31:0] $end
    $var wire  1 , reg1_read_o $end
    $var wire  5 / reg2_addr_o [4:0] $end
    $var wire 32 l reg2_data_i [31:0] $end
    $var wire 32 j reg2_o [31:0] $end
    $var wire  1 - reg2_read_o $end
    $var wire  1 h rst $end
    $var wire  5 ' wd_o [4:0] $end
    $var wire  1 & wreg_o $end
   $upscope $end
   $scope module id_ex0 $end
    $var wire  1 g clk $end
    $var wire  8 7 ex_aluop [7:0] $end
    $var wire  3 8 ex_alusel [2:0] $end
    $var wire 32 9 ex_reg1 [31:0] $end
    $var wire 32 : ex_reg2 [31:0] $end
    $var wire  5 < ex_wd [4:0] $end
    $var wire  1 ; ex_wreg $end
    $var wire  8 $ id_aluop [7:0] $end
    $var wire  3 % id_alusel [2:0] $end
    $var wire 32 i id_reg1 [31:0] $end
    $var wire 32 j id_reg2 [31:0] $end
    $var wire  5 ' id_wd [4:0] $end
    $var wire  1 & id_wreg $end
    $var wire  1 h rst $end
   $upscope $end
   $scope module if_id0 $end
    $var wire  1 g clk $end
    $var wire 32 6 id_inst [31:0] $end
    $var wire 32 5 id_pc [31:0] $end
    $var wire 32 # if_inst [31:0] $end
    $var wire 32 3 if_pc [31:0] $end
    $var wire  1 h rst $end
   $upscope $end
   $scope module mem0 $end
    $var wire  1 h rst $end
    $var wire  5 > wd_i [4:0] $end
    $var wire  5 * wd_o [4:0] $end
    $var wire 32 ? wdata_i [31:0] $end
    $var wire 32 + wdata_o [31:0] $end
    $var wire  1 = wreg_i $end
    $var wire  1 ) wreg_o $end
   $upscope $end
   $scope module mem_wb0 $end
    $var wire  1 g clk $end
    $var wire  5 * mem_wd [4:0] $end
    $var wire 32 + mem_wdata [31:0] $end
    $var wire  1 ) mem_wreg $end
    $var wire  1 h rst $end
    $var wire  5 A wb_wd [4:0] $end
    $var wire 32 B wb_wdata [31:0] $end
    $var wire  1 @ wb_wreg $end
   $upscope $end
   $scope module pc_reg0 $end
    $var wire  1 4 ce $end
    $var wire  1 g clk $end
    $var wire 32 3 pc [31:0] $end
    $var wire  1 h rst $end
   $upscope $end
   $scope module regfile0 $end
    $var wire  1 g clk $end
    $var wire  5 . raddr1 [4:0] $end
    $var wire  5 / raddr2 [4:0] $end
    $var wire 32 k rdata1 [31:0] $end
    $var wire 32 l rdata2 [31:0] $end
    $var wire  1 , re1 $end
    $var wire  1 - re2 $end
    $var wire 32 G regs(0) [31:0] $end
    $var wire 32 H regs(1) [31:0] $end
    $var wire 32 Q regs(10) [31:0] $end
    $var wire 32 R regs(11) [31:0] $end
    $var wire 32 S regs(12) [31:0] $end
    $var wire 32 T regs(13) [31:0] $end
    $var wire 32 U regs(14) [31:0] $end
    $var wire 32 V regs(15) [31:0] $end
    $var wire 32 W regs(16) [31:0] $end
    $var wire 32 X regs(17) [31:0] $end
    $var wire 32 Y regs(18) [31:0] $end
    $var wire 32 Z regs(19) [31:0] $end
    $var wire 32 I regs(2) [31:0] $end
    $var wire 32 [ regs(20) [31:0] $end
    $var wire 32 \ regs(21) [31:0] $end
    $var wire 32 ] regs(22) [31:0] $end
    $var wire 32 ^ regs(23) [31:0] $end
    $var wire 32 _ regs(24) [31:0] $end
    $var wire 32 ` regs(25) [31:0] $end
    $var wire 32 a regs(26) [31:0] $end
    $var wire 32 b regs(27) [31:0] $end
    $var wire 32 c regs(28) [31:0] $end
    $var wire 32 d regs(29) [31:0] $end
    $var wire 32 J regs(3) [31:0] $end
    $var wire 32 e regs(30) [31:0] $end
    $var wire 32 f regs(31) [31:0] $end
    $var wire 32 K regs(4) [31:0] $end
    $var wire 32 L regs(5) [31:0] $end
    $var wire 32 M regs(6) [31:0] $end
    $var wire 32 N regs(7) [31:0] $end
    $var wire 32 O regs(8) [31:0] $end
    $var wire 32 P regs(9) [31:0] $end
    $var wire  1 h rst $end
    $var wire  5 A waddr [4:0] $end
    $var wire 32 B wdata [31:0] $end
    $var wire  1 @ we $end
   $upscope $end
   $scope module rom0 $end
    $var wire 32 3 addr [31:0] $end
    $var wire  1 4 ce $end
    $var wire 32 # inst [31:0] $end
   $upscope $end
  $upscope $end
 $upscope $end
$enddefinitions $end


#0
b00000000000000000000000000000000 #
b00000000 $
b000 %
0&
b00000 '
b00000000000000000000000000000000 (
0)
b00000 *
b00000000000000000000000000000000 +
0,
0-
b00000 .
b00000 /
00
b00000000000000000000000000000000 1
02
b00000000000000000000000000000000 3
04
b00000000000000000000000000000000 5
b00000000000000000000000000000000 6
b00000000 7
b000 8
b00000000000000000000000000000000 9
b00000000000000000000000000000000 :
0;
b00000 <
0=
b00000 >
b00000000000000000000000000000000 ?
0@
b00000 A
b00000000000000000000000000000000 B
b000000 C
b00000 D
b000000 E
b00000 F
b00000000000000000000000000000000 G
b00000000000000000000000000000000 H
b00000000000000000000000000000000 I
b00000000000000000000000000000000 J
b00000000000000000000000000000000 K
b00000000000000000000000000000000 L
b00000000000000000000000000000000 M
b00000000000000000000000000000000 N
b00000000000000000000000000000000 O
b00000000000000000000000000000000 P
b00000000000000000000000000000000 Q
b00000000000000000000000000000000 R
b00000000000000000000000000000000 S
b00000000000000000000000000000000 T
b00000000000000000000000000000000 U
b00000000000000000000000000000000 V
b00000000000000000000000000000000 W
b00000000000000000000000000000000 X
b00000000000000000000000000000000 Y
b00000000000000000000000000000000 Z
b00000000000000000000000000000000 [
b00000000000000000000000000000000 \
b00000000000000000000000000000000 ]
b00000000000000000000000000000000 ^
b00000000000000000000000000000000 _
b00000000000000000000000000000000 `
b00000000000000000000000000000000 a
b00000000000000000000000000000000 b
b00000000000000000000000000000000 c
b00000000000000000000000000000000 d
b00000000000000000000000000000000 e
b00000000000000000000000000000000 f
0g
0h
b00000000000000000000000000000000 i
b00000000000000000000000000000000 j
b00000000000000000000000000000000 k
b00000000000000000000000000000000 l
b00000000000000000000000000000000 m
#1
b00110100001000010000000000000001 #
14
1g
#2
0g
#3
b00110100001000010000000000000010 #
b00100101 $
b001 %
1&
b00001 '
1,
b00001 .
b00001 /
b00000000000000000000000000000001 1
12
b00000000000000000000000000000100 3
b00110100001000010000000000000001 6
b001101 C
b000001 E
b00001 F
1g
b00000000000000000000000000000001 j
#4
0g
#5
b00110100001000010000000000000100 #
b00000000000000000000000000000001 (
b00000000000000000000000000000010 1
b00000000000000000000000000001000 3
b00000000000000000000000000000100 5
b00110100001000010000000000000010 6
b00100101 7
b001 8
b00000000000000000000000000000001 :
1;
b00001 <
b000010 E
1g
b00000000000000000000000000000001 i
b00000000000000000000000000000010 j
b00000000000000000000000000000001 m
#6
0g
#7
b00110100001000010000000000001000 #
b00000000000000000000000000000011 (
1)
b00001 *
b00000000000000000000000000000001 +
10
b00000000000000000000000000000100 1
b00000000000000000000000000001100 3
b00000000000000000000000000001000 5
b00110100001000010000000000000100 6
b00000000000000000000000000000001 9
b00000000000000000000000000000010 :
1=
b00001 >
b00000000000000000000000000000001 ?
b000100 E
1g
b00000000000000000000000000000011 i
b00000000000000000000000000000100 j
b00000000000000000000000000000011 m
#8
0g
#9
b00110100001000010000000000010000 #
b00000000000000000000000000000111 (
b00000000000000000000000000000011 +
b00000000000000000000000000001000 1
b00000000000000000000000000010000 3
b00000000000000000000000000001100 5
b00110100001000010000000000001000 6
b00000000000000000000000000000011 9
b00000000000000000000000000000100 :
b00000000000000000000000000000011 ?
1@
b00001 A
b00000000000000000000000000000001 B
b001000 E
1g
b00000000000000000000000000000111 i
b00000000000000000000000000001000 j
b00000000000000000000000000000001 k
b00000000000000000000000000000111 m
#10
0g
#11
b00110100001000010000000000100000 #
b00000000000000000000000000001111 (
b00000000000000000000000000000111 +
b00000000000000000000000000010000 1
b00000000000000000000000000010100 3
b00000000000000000000000000010000 5
b00110100001000010000000000010000 6
b00000000000000000000000000000111 9
b00000000000000000000000000001000 :
b00000000000000000000000000000111 ?
b00000000000000000000000000000011 B
b010000 E
b00000000000000000000000000000001 H
1g
b00000000000000000000000000001111 i
b00000000000000000000000000010000 j
b00000000000000000000000000000011 k
b00000000000000000000000000000001 l
b00000000000000000000000000001111 m
#12
0g
#13
b00110100011000110000000000000001 #
b00000000000000000000000000011111 (
b00000000000000000000000000001111 +
b00000000000000000000000000100000 1
b00000000000000000000000000011000 3
b00000000000000000000000000010100 5
b00110100001000010000000000100000 6
b00000000000000000000000000001111 9
b00000000000000000000000000010000 :
b00000000000000000000000000001111 ?
b00000000000000000000000000000111 B
b100000 E
b00000000000000000000000000000011 H
1g
b00000000000000000000000000011111 i
b00000000000000000000000000100000 j
b00000000000000000000000000000111 k
b00000000000000000000000000000011 l
b00000000000000000000000000011111 m
#14
0g
#15
b00110100101001010000000000000010 #
b00011 '
b00000000000000000000000000111111 (
b00000000000000000000000000011111 +
b00011 .
b00011 /
b00000000000000000000000000000001 1
b00000000000000000000000000011100 3
b00000000000000000000000000011000 5
b00110100011000110000000000000001 6
b00000000000000000000000000011111 9
b00000000000000000000000000100000 :
b00000000000000000000000000011111 ?
b00000000000000000000000000001111 B
b000001 E
b00011 F
b00000000000000000000000000000111 H
1g
b00000000000000000000000000000000 i
b00000000000000000000000000000001 j
b00000000000000000000000000000000 k
b00000000000000000000000000000000 l
b00000000000000000000000000111111 m
#16
0g
#17
b00110100011000110000000000000100 #
b00101 '
b00000000000000000000000000000001 (
b00000000000000000000000000111111 +
b00101 .
b00101 /
b00000000000000000000000000000010 1
b00000000000000000000000000100000 3
b00000000000000000000000000011100 5
b00110100101001010000000000000010 6
b00000000000000000000000000000000 9
b00000000000000000000000000000001 :
b00011 <
b00000000000000000000000000111111 ?
b00000000000000000000000000011111 B
b000010 E
b00101 F
b00000000000000000000000000001111 H
1g
b00000000000000000000000000000010 j
b00000000000000000000000000000001 m
#18
0g
#19
b00110100101001010000000000001000 #
b00011 '
b00000000000000000000000000000010 (
b00011 *
b00000000000000000000000000000001 +
b00011 .
b00011 /
b00000000000000000000000000000100 1
b00000000000000000000000000100100 3
b00000000000000000000000000100000 5
b00110100011000110000000000000100 6
b00000000000000000000000000000010 :
b00101 <
b00011 >
b00000000000000000000000000000001 ?
b00000000000000000000000000111111 B
b000100 E
b00011 F
b00000000000000000000000000011111 H
1g
b00000000000000000000000000000001 i
b00000000000000000000000000000100 j
b00000000000000000000000000000010 m
#20
0g
#21
b00110100011000110000000000010000 #
b00101 '
b00000000000000000000000000000101 (
b00101 *
b00000000000000000000000000000010 +
b00101 .
b00101 /
b00000000000000000000000000001000 1
b00000000000000000000000000101000 3
b00000000000000000000000000100100 5
b00110100101001010000000000001000 6
b00000000000000000000000000000001 9
b00000000000000000000000000000100 :
b00011 <
b00101 >
b00000000000000000000000000000010 ?
b00011 A
b00000000000000000000000000000001 B
b001000 E
b00101 F
b00000000000000000000000000111111 H
1g
b00000000000000000000000000000010 i
b00000000000000000000000000001000 j
b00000000000000000000000000000101 m
#22
0g
#23
b00110100101001010000000000100000 #
b00011 '
b00000000000000000000000000001010 (
b00011 *
b00000000000000000000000000000101 +
b00011 .
b00011 /
b00000000000000000000000000010000 1
b00000000000000000000000000101100 3
b00000000000000000000000000101000 5
b00110100011000110000000000010000 6
b00000000000000000000000000000010 9
b00000000000000000000000000001000 :
b00101 <
b00011 >
b00000000000000000000000000000101 ?
b00101 A
b00000000000000000000000000000010 B
b010000 E
b00011 F
b00000000000000000000000000000001 J
1g
b00000000000000000000000000000101 i
b00000000000000000000000000010000 j
b00000000000000000000000000000001 k
b00000000000000000000000000000001 l
b00000000000000000000000000001010 m
#24
0g
#25
b00000000000000000000000000000000 #
b00101 '
b00000000000000000000000000010101 (
b00101 *
b00000000000000000000000000001010 +
b00101 .
b00101 /
b00000000000000000000000000100000 1
b00000000000000000000000000110000 3
b00000000000000000000000000101100 5
b00110100101001010000000000100000 6
b00000000000000000000000000000101 9
b00000000000000000000000000010000 :
b00011 <
b00101 >
b00000000000000000000000000001010 ?
b00011 A
b00000000000000000000000000000101 B
b100000 E
b00101 F
b00000000000000000000000000000010 L
1g
b00000000000000000000000000001010 i
b00000000000000000000000000100000 j
b00000000000000000000000000000010 k
b00000000000000000000000000000010 l
b00000000000000000000000000010101 m
#26
0g
#27
b00000000 $
b000 %
0&
b00000 '
b00000000000000000000000000101010 (
b00011 *
b00000000000000000000000000010101 +
0,
b00000 .
b00000 /
b00000000000000000000000000000000 1
02
b00000000000000000000000000110100 3
b00000000000000000000000000110000 5
b00000000000000000000000000000000 6
b00000000000000000000000000001010 9
b00000000000000000000000000100000 :
b00101 <
b00011 >
b00000000000000000000000000010101 ?
b00101 A
b00000000000000000000000000001010 B
b000000 C
b000000 E
b00000 F
b00000000000000000000000000000101 J
1g
b00000000000000000000000000000000 i
b00000000000000000000000000000000 j
b00000000000000000000000000000000 k
b00000000000000000000000000000000 l
b00000000000000000000000000101010 m
#28
0g
#29
b00000000000000000000000000000000 (
b00101 *
b00000000000000000000000000101010 +
b00000000000000000000000000111000 3
b00000000000000000000000000110100 5
b00000000 7
b000 8
b00000000000000000000000000000000 9
b00000000000000000000000000000000 :
0;
b00000 <
b00101 >
b00000000000000000000000000101010 ?
b00011 A
b00000000000000000000000000010101 B
b00000000000000000000000000001010 L
1g
b00000000000000000000000000000000 m
#30
0g
#31
0)
b00000 *
b00000000000000000000000000000000 +
00
b00000000000000000000000000111100 3
b00000000000000000000000000111000 5
0=
b00000 >
b00000000000000000000000000000000 ?
b00101 A
b00000000000000000000000000101010 B
b00000000000000000000000000010101 J
1g
#32
0g
#33
b00000000000000000000000001000000 3
b00000000000000000000000000111100 5
0@
b00000 A
b00000000000000000000000000000000 B
b00000000000000000000000000101010 L
1g
#34
0g
#35
b00000000000000000000000001000100 3
b00000000000000000000000001000000 5
1g
#36
0g
#37
b00000000000000000000000001001000 3
b00000000000000000000000001000100 5
1g
#38
0g
#39
b00000000000000000000000001001100 3
b00000000000000000000000001001000 5
1g
#40
0g
#41
b00000000000000000000000001010000 3
b00000000000000000000000001001100 5
1g
#42
0g
#43
b00000000000000000000000001010100 3
b00000000000000000000000001010000 5
1g
#44
0g
#45
b00000000000000000000000001011000 3
b00000000000000000000000001010100 5
1g
#46
0g
#47
b00000000000000000000000001011100 3
b00000000000000000000000001011000 5
1g
#48
0g
#49
b00000000000000000000000001100000 3
b00000000000000000000000001011100 5
1g
#50
0g
#51
b00000000000000000000000001100100 3
b00000000000000000000000001100000 5
1g
#52
0g
#53
b00000000000000000000000001101000 3
b00000000000000000000000001100100 5
1g
#54
0g
#55
b00000000000000000000000001101100 3
b00000000000000000000000001101000 5
1g
#56
0g
#57
b00000000000000000000000001110000 3
b00000000000000000000000001101100 5
1g
#58
0g
#59
b00000000000000000000000001110100 3
b00000000000000000000000001110000 5
1g
#60
0g
#61
b00000000000000000000000001111000 3
b00000000000000000000000001110100 5
1g
#62
0g
#63
b00000000000000000000000001111100 3
b00000000000000000000000001111000 5
1g
#64
0g
#65
b00000000000000000000000010000000 3
b00000000000000000000000001111100 5
1g
#66
0g
#67
b00000000000000000000000010000100 3
b00000000000000000000000010000000 5
1g
#68
0g
#69
b00000000000000000000000010001000 3
b00000000000000000000000010000100 5
1g
#70
0g
#71
b00000000000000000000000010001100 3
b00000000000000000000000010001000 5
1g
#72
0g
#73
b00000000000000000000000010010000 3
b00000000000000000000000010001100 5
1g
#74
0g
#75
b00000000000000000000000010010100 3
b00000000000000000000000010010000 5
1g
#76
0g
#77
b00000000000000000000000010011000 3
b00000000000000000000000010010100 5
1g
#78
0g
#79
b00000000000000000000000010011100 3
b00000000000000000000000010011000 5
1g
#80
0g
#81
b00000000000000000000000010100000 3
b00000000000000000000000010011100 5
1g
#82
0g
#83
b00000000000000000000000010100100 3
b00000000000000000000000010100000 5
1g
#84
0g
#85
b00000000000000000000000010101000 3
b00000000000000000000000010100100 5
1g
#86
0g
#87
b00000000000000000000000010101100 3
b00000000000000000000000010101000 5
1g
#88
0g
#89
b00000000000000000000000010110000 3
b00000000000000000000000010101100 5
1g
#90
0g
#91
b00000000000000000000000010110100 3
b00000000000000000000000010110000 5
1g
#92
0g
#93
b00000000000000000000000010111000 3
b00000000000000000000000010110100 5
1g
#94
0g
#95
b00000000000000000000000010111100 3
b00000000000000000000000010111000 5
1g
#96
0g
#97
b00000000000000000000000011000000 3
b00000000000000000000000010111100 5
1g
#98
0g
#99
b00000000000000000000000011000100 3
b00000000000000000000000011000000 5
1g
#100
0g
#101
b00000000000000000000000011001000 3
b00000000000000000000000011000100 5
1g
#102
0g
#103
b00000000000000000000000011001100 3
b00000000000000000000000011001000 5
1g
#104
0g
#105
b00000000000000000000000011010000 3
b00000000000000000000000011001100 5
1g
#106
0g
#107
b00000000000000000000000011010100 3
b00000000000000000000000011010000 5
1g
#108
0g
#109
b00000000000000000000000011011000 3
b00000000000000000000000011010100 5
1g
#110
0g
#111
b00000000000000000000000011011100 3
b00000000000000000000000011011000 5
1g
#112
0g
#113
b00000000000000000000000011100000 3
b00000000000000000000000011011100 5
1g
#114
0g
#115
b00000000000000000000000011100100 3
b00000000000000000000000011100000 5
1g
#116
0g
#117
b00000000000000000000000011101000 3
b00000000000000000000000011100100 5
1g
#118
0g
#119
b00000000000000000000000011101100 3
b00000000000000000000000011101000 5
1g
#120
0g
#121
b00000000000000000000000011110000 3
b00000000000000000000000011101100 5
1g
#122
0g
#123
b00000000000000000000000011110100 3
b00000000000000000000000011110000 5
1g
#124
0g
#125
b00000000000000000000000011111000 3
b00000000000000000000000011110100 5
1g
#126
0g
#127
b00000000000000000000000011111100 3
b00000000000000000000000011111000 5
1g
#128
0g
#129
b00000000000000000000000100000000 3
b00000000000000000000000011111100 5
1g
#130
0g
#131
b00000000000000000000000100000100 3
b00000000000000000000000100000000 5
1g
#132
0g
#133
b00000000000000000000000100001000 3
b00000000000000000000000100000100 5
1g
#134
0g
#135
b00000000000000000000000100001100 3
b00000000000000000000000100001000 5
1g
#136
0g
#137
b00000000000000000000000100010000 3
b00000000000000000000000100001100 5
1g
#138
0g
#139
b00000000000000000000000100010100 3
b00000000000000000000000100010000 5
1g
#140
0g
#141
b00000000000000000000000100011000 3
b00000000000000000000000100010100 5
1g
#142
0g
#143
b00000000000000000000000100011100 3
b00000000000000000000000100011000 5
1g
#144
0g
#145
b00000000000000000000000100100000 3
b00000000000000000000000100011100 5
1g
#146
0g
#147
b00000000000000000000000100100100 3
b00000000000000000000000100100000 5
1g
#148
0g
#149
b00000000000000000000000100101000 3
b00000000000000000000000100100100 5
1g
#150
0g
#151
b00000000000000000000000100101100 3
b00000000000000000000000100101000 5
1g
#152
0g
#153
b00000000000000000000000100110000 3
b00000000000000000000000100101100 5
1g
#154
0g
#155
b00000000000000000000000100110100 3
b00000000000000000000000100110000 5
1g
#156
0g
#157
b00000000000000000000000100111000 3
b00000000000000000000000100110100 5
1g
#158
0g
#159
b00000000000000000000000100111100 3
b00000000000000000000000100111000 5
1g
#160
0g
#161
b00000000000000000000000101000000 3
b00000000000000000000000100111100 5
1g
#162
0g
#163
b00000000000000000000000101000100 3
b00000000000000000000000101000000 5
1g
#164
0g
#165
b00000000000000000000000101001000 3
b00000000000000000000000101000100 5
1g
#166
0g
#167
b00000000000000000000000101001100 3
b00000000000000000000000101001000 5
1g
#168
0g
#169
b00000000000000000000000101010000 3
b00000000000000000000000101001100 5
1g
#170
0g
#171
b00000000000000000000000101010100 3
b00000000000000000000000101010000 5
1g
#172
0g
#173
b00000000000000000000000101011000 3
b00000000000000000000000101010100 5
1g
#174
0g
#175
b00000000000000000000000101011100 3
b00000000000000000000000101011000 5
1g
#176
0g
#177
b00000000000000000000000101100000 3
b00000000000000000000000101011100 5
1g
#178
0g
#179
b00000000000000000000000101100100 3
b00000000000000000000000101100000 5
1g
#180
0g
#181
b00000000000000000000000101101000 3
b00000000000000000000000101100100 5
1g
#182
0g
#183
b00000000000000000000000101101100 3
b00000000000000000000000101101000 5
1g
#184
0g
#185
b00000000000000000000000101110000 3
b00000000000000000000000101101100 5
1g
#186
0g
#187
b00000000000000000000000101110100 3
b00000000000000000000000101110000 5
1g
#188
0g
#189
b00000000000000000000000101111000 3
b00000000000000000000000101110100 5
1g
#190
0g
#191
b00000000000000000000000101111100 3
b00000000000000000000000101111000 5
1g
#192
0g
#193
b00000000000000000000000110000000 3
b00000000000000000000000101111100 5
1g
#194
0g
#195
b00000000000000000000000110000100 3
b00000000000000000000000110000000 5
1g
#196
0g
#197
b00000000000000000000000110001000 3
b00000000000000000000000110000100 5
1g
#198
0g
#199
b00000000000000000000000110001100 3
b00000000000000000000000110001000 5
1g
#200
0g
#201
b00000000000000000000000110010000 3
b00000000000000000000000110001100 5
1g
#202
0g
#203
b00000000000000000000000110010100 3
b00000000000000000000000110010000 5
1g
#204
0g
#205
b00000000000000000000000110011000 3
b00000000000000000000000110010100 5
1g
#206
0g
#207
b00000000000000000000000110011100 3
b00000000000000000000000110011000 5
1g
#208
0g
#209
b00000000000000000000000110100000 3
b00000000000000000000000110011100 5
1g
#210
0g
#211
b00000000000000000000000110100100 3
b00000000000000000000000110100000 5
1g
#212
0g
#213
b00000000000000000000000110101000 3
b00000000000000000000000110100100 5
1g
#214
0g
#215
b00000000000000000000000110101100 3
b00000000000000000000000110101000 5
1g
#216
0g
#217
b00000000000000000000000110110000 3
b00000000000000000000000110101100 5
1g
#218
0g
#219
b00000000000000000000000110110100 3
b00000000000000000000000110110000 5
1g
#220
0g
#221
b00000000000000000000000110111000 3
b00000000000000000000000110110100 5
1g
#222
0g
#223
b00000000000000000000000110111100 3
b00000000000000000000000110111000 5
1g
#224
0g
#225
b00000000000000000000000111000000 3
b00000000000000000000000110111100 5
1g
#226
0g
#227
b00000000000000000000000111000100 3
b00000000000000000000000111000000 5
1g
#228
0g
#229
b00000000000000000000000111001000 3
b00000000000000000000000111000100 5
1g
#230
0g
#231
b00000000000000000000000111001100 3
b00000000000000000000000111001000 5
1g
#232
0g
#233
b00000000000000000000000111010000 3
b00000000000000000000000111001100 5
1g
#234
0g
#235
b00000000000000000000000111010100 3
b00000000000000000000000111010000 5
1g
#236
0g
#237
b00000000000000000000000111011000 3
b00000000000000000000000111010100 5
1g
#238
0g
#239
b00000000000000000000000111011100 3
b00000000000000000000000111011000 5
1g
#240
0g
#241
b00000000000000000000000111100000 3
b00000000000000000000000111011100 5
1g
#242
0g
#243
b00000000000000000000000111100100 3
b00000000000000000000000111100000 5
1g
#244
0g
#245
b00000000000000000000000111101000 3
b00000000000000000000000111100100 5
1g
#246
0g
#247
b00000000000000000000000111101100 3
b00000000000000000000000111101000 5
1g
#248
0g
#249
b00000000000000000000000111110000 3
b00000000000000000000000111101100 5
1g
#250
0g
#251
b00000000000000000000000111110100 3
b00000000000000000000000111110000 5
1g
#252
0g
#253
b00000000000000000000000111111000 3
b00000000000000000000000111110100 5
1g
#254
0g
#255
b00000000000000000000000111111100 3
b00000000000000000000000111111000 5
1g
#256
0g
#257
b00000000000000000000001000000000 3
b00000000000000000000000111111100 5
1g
#258
0g
#259
b00000000000000000000001000000100 3
b00000000000000000000001000000000 5
1g
#260
0g
#261
b00000000000000000000001000001000 3
b00000000000000000000001000000100 5
1g
#262
0g
#263
b00000000000000000000001000001100 3
b00000000000000000000001000001000 5
1g
#264
0g
#265
b00000000000000000000001000010000 3
b00000000000000000000001000001100 5
1g
#266
0g
#267
b00000000000000000000001000010100 3
b00000000000000000000001000010000 5
1g
#268
0g
#269
b00000000000000000000001000011000 3
b00000000000000000000001000010100 5
1g
#270
0g
#271
b00000000000000000000001000011100 3
b00000000000000000000001000011000 5
1g
#272
0g
#273
b00000000000000000000001000100000 3
b00000000000000000000001000011100 5
1g
#274
0g
#275
b00000000000000000000001000100100 3
b00000000000000000000001000100000 5
1g
#276
0g
#277
b00000000000000000000001000101000 3
b00000000000000000000001000100100 5
1g
#278
0g
#279
b00000000000000000000001000101100 3
b00000000000000000000001000101000 5
1g
#280
0g
#281
b00000000000000000000001000110000 3
b00000000000000000000001000101100 5
1g
#282
0g
#283
b00000000000000000000001000110100 3
b00000000000000000000001000110000 5
1g
#284
0g
#285
b00000000000000000000001000111000 3
b00000000000000000000001000110100 5
1g
#286
0g
#287
b00000000000000000000001000111100 3
b00000000000000000000001000111000 5
1g
#288
0g
#289
b00000000000000000000001001000000 3
b00000000000000000000001000111100 5
1g
#290
0g
#291
b00000000000000000000001001000100 3
b00000000000000000000001001000000 5
1g
#292
0g
#293
b00000000000000000000001001001000 3
b00000000000000000000001001000100 5
1g
#294
0g
#295
b00000000000000000000001001001100 3
b00000000000000000000001001001000 5
1g
#296
0g
#297
b00000000000000000000001001010000 3
b00000000000000000000001001001100 5
1g
#298
0g
#299
b00000000000000000000001001010100 3
b00000000000000000000001001010000 5
1g
#300
0g
#301
b00000000000000000000001001011000 3
b00000000000000000000001001010100 5
1g
#302
0g
#303
b00000000000000000000001001011100 3
b00000000000000000000001001011000 5
1g
#304
0g
#305
b00000000000000000000001001100000 3
b00000000000000000000001001011100 5
1g
#306
0g
#307
b00000000000000000000001001100100 3
b00000000000000000000001001100000 5
1g
#308
0g
#309
b00000000000000000000001001101000 3
b00000000000000000000001001100100 5
1g
#310
0g
#311
b00000000000000000000001001101100 3
b00000000000000000000001001101000 5
1g
#312
0g
#313
b00000000000000000000001001110000 3
b00000000000000000000001001101100 5
1g
#314
0g
#315
b00000000000000000000001001110100 3
b00000000000000000000001001110000 5
1g
#316
0g
#317
b00000000000000000000001001111000 3
b00000000000000000000001001110100 5
1g
#318
0g
#319
b00000000000000000000001001111100 3
b00000000000000000000001001111000 5
1g
#320
0g
#321
b00000000000000000000001010000000 3
b00000000000000000000001001111100 5
1g
#322
0g
#323
b00000000000000000000001010000100 3
b00000000000000000000001010000000 5
1g
#324
0g
#325
b00000000000000000000001010001000 3
b00000000000000000000001010000100 5
1g
#326
0g
#327
b00000000000000000000001010001100 3
b00000000000000000000001010001000 5
1g
#328
0g
#329
b00000000000000000000001010010000 3
b00000000000000000000001010001100 5
1g
#330
0g
#331
b00000000000000000000001010010100 3
b00000000000000000000001010010000 5
1g
#332
0g
#333
b00000000000000000000001010011000 3
b00000000000000000000001010010100 5
1g
#334
0g
#335
b00000000000000000000001010011100 3
b00000000000000000000001010011000 5
1g
#336
0g
