cpu/mips.vcd
$version Generated by VerilatedVcd $end
$date Fri Jun 22 14:00:06 2018
 $end
$timescale   1ns $end

 $scope module TOP $end
  $var wire  1 e clk $end
  $var wire  1 f rst $end
  $scope module mips $end
   $var wire  1 e clk $end
   $var wire  8 5 ex_aluop_i [7:0] $end
   $var wire  3 6 ex_alusel_i [2:0] $end
   $var wire 32 7 ex_reg1_i [31:0] $end
   $var wire 32 8 ex_reg2_i [31:0] $end
   $var wire  5 : ex_wd_i [4:0] $end
   $var wire  5 : ex_wd_o [4:0] $end
   $var wire 32 i ex_wdata_o [31:0] $end
   $var wire  1 9 ex_wreg_i $end
   $var wire  1 9 ex_wreg_o $end
   $var wire  8 $ id_aluop_o [7:0] $end
   $var wire  3 % id_alusel_o [2:0] $end
   $var wire 32 4 id_inst_i [31:0] $end
   $var wire 32 3 id_pc_i [31:0] $end
   $var wire 32 g id_reg1_o [31:0] $end
   $var wire 32 h id_reg2_o [31:0] $end
   $var wire  5 ' id_wd_o [4:0] $end
   $var wire  1 & id_wreg_o $end
   $var wire  5 < mem_wd_i [4:0] $end
   $var wire  5 ) mem_wd_o [4:0] $end
   $var wire 32 = mem_wdata_i [31:0] $end
   $var wire 32 * mem_wdata_o [31:0] $end
   $var wire  1 ; mem_wreg_i $end
   $var wire  1 ( mem_wreg_o $end
   $var wire 32 1 pc [31:0] $end
   $var wire  5 - reg1_addr [4:0] $end
   $var wire 32 j reg1_data [31:0] $end
   $var wire  1 + reg1_read $end
   $var wire  5 . reg2_addr [4:0] $end
   $var wire 32 k reg2_data [31:0] $end
   $var wire  1 , reg2_read $end
   $var wire  1 2 rom_ce $end
   $var wire 32 # rom_data [31:0] $end
   $var wire  1 f rst $end
   $var wire  5 ? wb_wd_i [4:0] $end
   $var wire 32 @ wb_wdata_i [31:0] $end
   $var wire  1 > wb_wreg_i $end
   $scope module ex0 $end
    $var wire  8 5 aluop_i [7:0] $end
    $var wire  3 6 alusel_i [2:0] $end
    $var wire 32 l logicout [31:0] $end
    $var wire 32 7 reg1_i [31:0] $end
    $var wire 32 8 reg2_i [31:0] $end
    $var wire  1 f rst $end
    $var wire  5 : wd_i [4:0] $end
    $var wire  5 : wd_o [4:0] $end
    $var wire 32 i wdata_o [31:0] $end
    $var wire  1 9 wreg_i $end
    $var wire  1 9 wreg_o $end
   $upscope $end
   $scope module ex_mem0 $end
    $var wire  1 e clk $end
    $var wire  5 : ex_wd [4:0] $end
    $var wire 32 i ex_wdata [31:0] $end
    $var wire  1 9 ex_wreg $end
    $var wire  5 < mem_wd [4:0] $end
    $var wire 32 = mem_wdata [31:0] $end
    $var wire  1 ; mem_wreg $end
    $var wire  1 f rst $end
   $upscope $end
   $scope module id0 $end
    $var wire  8 $ aluop_o [7:0] $end
    $var wire  3 % alusel_o [2:0] $end
    $var wire 32 / imm [31:0] $end
    $var wire 32 4 inst_i [31:0] $end
    $var wire  1 0 instvalid $end
    $var wire  6 A op [5:0] $end
    $var wire  5 B op2 [4:0] $end
    $var wire  6 C op3 [5:0] $end
    $var wire  5 D op4 [4:0] $end
    $var wire 32 3 pc_i [31:0] $end
    $var wire  5 - reg1_addr_o [4:0] $end
    $var wire 32 j reg1_data_i [31:0] $end
    $var wire 32 g reg1_o [31:0] $end
    $var wire  1 + reg1_read_o $end
    $var wire  5 . reg2_addr_o [4:0] $end
    $var wire 32 k reg2_data_i [31:0] $end
    $var wire 32 h reg2_o [31:0] $end
    $var wire  1 , reg2_read_o $end
    $var wire  1 f rst $end
    $var wire  5 ' wd_o [4:0] $end
    $var wire  1 & wreg_o $end
   $upscope $end
   $scope module id_ex0 $end
    $var wire  1 e clk $end
    $var wire  8 5 ex_aluop [7:0] $end
    $var wire  3 6 ex_alusel [2:0] $end
    $var wire 32 7 ex_reg1 [31:0] $end
    $var wire 32 8 ex_reg2 [31:0] $end
    $var wire  5 : ex_wd [4:0] $end
    $var wire  1 9 ex_wreg $end
    $var wire  8 $ id_aluop [7:0] $end
    $var wire  3 % id_alusel [2:0] $end
    $var wire 32 g id_reg1 [31:0] $end
    $var wire 32 h id_reg2 [31:0] $end
    $var wire  5 ' id_wd [4:0] $end
    $var wire  1 & id_wreg $end
    $var wire  1 f rst $end
   $upscope $end
   $scope module if_id0 $end
    $var wire  1 e clk $end
    $var wire 32 4 id_inst [31:0] $end
    $var wire 32 3 id_pc [31:0] $end
    $var wire 32 # if_inst [31:0] $end
    $var wire 32 1 if_pc [31:0] $end
    $var wire  1 f rst $end
   $upscope $end
   $scope module mem0 $end
    $var wire  1 f rst $end
    $var wire  5 < wd_i [4:0] $end
    $var wire  5 ) wd_o [4:0] $end
    $var wire 32 = wdata_i [31:0] $end
    $var wire 32 * wdata_o [31:0] $end
    $var wire  1 ; wreg_i $end
    $var wire  1 ( wreg_o $end
   $upscope $end
   $scope module mem_wb0 $end
    $var wire  1 e clk $end
    $var wire  5 ) mem_wd [4:0] $end
    $var wire 32 * mem_wdata [31:0] $end
    $var wire  1 ( mem_wreg $end
    $var wire  1 f rst $end
    $var wire  5 ? wb_wd [4:0] $end
    $var wire 32 @ wb_wdata [31:0] $end
    $var wire  1 > wb_wreg $end
   $upscope $end
   $scope module pc_reg0 $end
    $var wire  1 2 ce $end
    $var wire  1 e clk $end
    $var wire 32 1 pc [31:0] $end
    $var wire  1 f rst $end
   $upscope $end
   $scope module regfile0 $end
    $var wire  1 e clk $end
    $var wire  5 - raddr1 [4:0] $end
    $var wire  5 . raddr2 [4:0] $end
    $var wire 32 j rdata1 [31:0] $end
    $var wire 32 k rdata2 [31:0] $end
    $var wire  1 + re1 $end
    $var wire  1 , re2 $end
    $var wire 32 E regs(0) [31:0] $end
    $var wire 32 F regs(1) [31:0] $end
    $var wire 32 O regs(10) [31:0] $end
    $var wire 32 P regs(11) [31:0] $end
    $var wire 32 Q regs(12) [31:0] $end
    $var wire 32 R regs(13) [31:0] $end
    $var wire 32 S regs(14) [31:0] $end
    $var wire 32 T regs(15) [31:0] $end
    $var wire 32 U regs(16) [31:0] $end
    $var wire 32 V regs(17) [31:0] $end
    $var wire 32 W regs(18) [31:0] $end
    $var wire 32 X regs(19) [31:0] $end
    $var wire 32 G regs(2) [31:0] $end
    $var wire 32 Y regs(20) [31:0] $end
    $var wire 32 Z regs(21) [31:0] $end
    $var wire 32 [ regs(22) [31:0] $end
    $var wire 32 \ regs(23) [31:0] $end
    $var wire 32 ] regs(24) [31:0] $end
    $var wire 32 ^ regs(25) [31:0] $end
    $var wire 32 _ regs(26) [31:0] $end
    $var wire 32 ` regs(27) [31:0] $end
    $var wire 32 a regs(28) [31:0] $end
    $var wire 32 b regs(29) [31:0] $end
    $var wire 32 H regs(3) [31:0] $end
    $var wire 32 c regs(30) [31:0] $end
    $var wire 32 d regs(31) [31:0] $end
    $var wire 32 I regs(4) [31:0] $end
    $var wire 32 J regs(5) [31:0] $end
    $var wire 32 K regs(6) [31:0] $end
    $var wire 32 L regs(7) [31:0] $end
    $var wire 32 M regs(8) [31:0] $end
    $var wire 32 N regs(9) [31:0] $end
    $var wire  1 f rst $end
    $var wire  5 ? waddr [4:0] $end
    $var wire 32 @ wdata [31:0] $end
    $var wire  1 > we $end
   $upscope $end
   $scope module rom0 $end
    $var wire 32 1 addr [31:0] $end
    $var wire  1 2 ce $end
    $var wire 32 # inst [31:0] $end
   $upscope $end
  $upscope $end
 $upscope $end
$enddefinitions $end


#0
b00000000000000000000000000000000 #
b00000000 $
b000 %
0&
b00000 '
0(
b00000 )
b00000000000000000000000000000000 *
0+
0,
b00000 -
b00000 .
b00000000000000000000000000000000 /
00
b00000000000000000000000000000000 1
02
b00000000000000000000000000000000 3
b00000000000000000000000000000000 4
b00000000 5
b000 6
b00000000000000000000000000000000 7
b00000000000000000000000000000000 8
09
b00000 :
0;
b00000 <
b00000000000000000000000000000000 =
0>
b00000 ?
b00000000000000000000000000000000 @
b000000 A
b00000 B
b000000 C
b00000 D
b00000000000000000000000000000000 E
b00000000000000000000000000000000 F
b00000000000000000000000000000000 G
b00000000000000000000000000000000 H
b00000000000000000000000000000000 I
b00000000000000000000000000000000 J
b00000000000000000000000000000000 K
b00000000000000000000000000000000 L
b00000000000000000000000000000000 M
b00000000000000000000000000000000 N
b00000000000000000000000000000000 O
b00000000000000000000000000000000 P
b00000000000000000000000000000000 Q
b00000000000000000000000000000000 R
b00000000000000000000000000000000 S
b00000000000000000000000000000000 T
b00000000000000000000000000000000 U
b00000000000000000000000000000000 V
b00000000000000000000000000000000 W
b00000000000000000000000000000000 X
b00000000000000000000000000000000 Y
b00000000000000000000000000000000 Z
b00000000000000000000000000000000 [
b00000000000000000000000000000000 \
b00000000000000000000000000000000 ]
b00000000000000000000000000000000 ^
b00000000000000000000000000000000 _
b00000000000000000000000000000000 `
b00000000000000000000000000000000 a
b00000000000000000000000000000000 b
b00000000000000000000000000000000 c
b00000000000000000000000000000000 d
0e
0f
b00000000000000000000000000000000 g
b00000000000000000000000000000000 h
b00000000000000000000000000000000 i
b00000000000000000000000000000000 j
b00000000000000000000000000000000 k
b00000000000000000000000000000000 l
#1
b00110100001000010000000000000001 #
12
1e
#2
0e
#3
b00110100001000010000000000000010 #
b00100101 $
b001 %
1&
b00001 '
1+
b00001 -
b00001 .
b00000000000000000000000000000001 /
10
b00000000000000000000000000000100 1
b00110100001000010000000000000001 4
b001101 A
b000001 C
b00001 D
1e
b00000000000000000000000000000001 h
#4
0e
#5
b00110100001000010000000000000100 #
b00000000000000000000000000000010 /
b00000000000000000000000000001000 1
b00000000000000000000000000000100 3
b00110100001000010000000000000010 4
b00100101 5
b001 6
b00000000000000000000000000000001 8
19
b00001 :
b000010 C
1e
b00000000000000000000000000000010 h
b00000000000000000000000000000001 i
b00000000000000000000000000000001 l
#6
0e
#7
b00110100001000010000000000001000 #
1(
b00001 )
b00000000000000000000000000000001 *
b00000000000000000000000000000100 /
b00000000000000000000000000001100 1
b00000000000000000000000000001000 3
b00110100001000010000000000000100 4
b00000000000000000000000000000010 8
1;
b00001 <
b00000000000000000000000000000001 =
b000100 C
1e
b00000000000000000000000000000100 h
b00000000000000000000000000000010 i
b00000000000000000000000000000010 l
#8
0e
#9
b00110100001000010000000000010000 #
b00000000000000000000000000000010 *
b00000000000000000000000000001000 /
b00000000000000000000000000010000 1
b00000000000000000000000000001100 3
b00110100001000010000000000001000 4
b00000000000000000000000000000100 8
b00000000000000000000000000000010 =
1>
b00001 ?
b00000000000000000000000000000001 @
b001000 C
1e
b00000000000000000000000000000001 g
b00000000000000000000000000001000 h
b00000000000000000000000000000100 i
b00000000000000000000000000000001 j
b00000000000000000000000000000100 l
#10
0e
#11
b00110100001000010000000000100000 #
b00000000000000000000000000000100 *
b00000000000000000000000000010000 /
b00000000000000000000000000010100 1
b00000000000000000000000000010000 3
b00110100001000010000000000010000 4
b00000000000000000000000000000001 7
b00000000000000000000000000001000 8
b00000000000000000000000000000100 =
b00000000000000000000000000000010 @
b010000 C
b00000000000000000000000000000001 F
1e
b00000000000000000000000000000010 g
b00000000000000000000000000010000 h
b00000000000000000000000000001001 i
b00000000000000000000000000000010 j
b00000000000000000000000000000001 k
b00000000000000000000000000001001 l
#12
0e
#13
b00000000000000000000000000000000 #
b00000000000000000000000000001001 *
b00000000000000000000000000100000 /
b00000000000000000000000000011000 1
b00000000000000000000000000010100 3
b00110100001000010000000000100000 4
b00000000000000000000000000000010 7
b00000000000000000000000000010000 8
b00000000000000000000000000001001 =
b00000000000000000000000000000100 @
b100000 C
b00000000000000000000000000000010 F
1e
b00000000000000000000000000000100 g
b00000000000000000000000000100000 h
b00000000000000000000000000010010 i
b00000000000000000000000000000100 j
b00000000000000000000000000000010 k
b00000000000000000000000000010010 l
#14
0e
#15
b00000000 $
b000 %
0&
b00000 '
b00000000000000000000000000010010 *
0+
b00000 -
b00000 .
b00000000000000000000000000000000 /
00
b00000000000000000000000000011100 1
b00000000000000000000000000011000 3
b00000000000000000000000000000000 4
b00000000000000000000000000000100 7
b00000000000000000000000000100000 8
b00000000000000000000000000010010 =
b00000000000000000000000000001001 @
b000000 A
b000000 C
b00000 D
b00000000000000000000000000000100 F
1e
b00000000000000000000000000000000 g
b00000000000000000000000000000000 h
b00000000000000000000000000100100 i
b00000000000000000000000000000000 j
b00000000000000000000000000000000 k
b00000000000000000000000000100100 l
#16
0e
#17
b00000000000000000000000000100100 *
b00000000000000000000000000100000 1
b00000000000000000000000000011100 3
b00000000 5
b000 6
b00000000000000000000000000000000 7
b00000000000000000000000000000000 8
09
b00000 :
b00000000000000000000000000100100 =
b00000000000000000000000000010010 @
b00000000000000000000000000001001 F
1e
b00000000000000000000000000000000 i
b00000000000000000000000000000000 l
#18
0e
#19
0(
b00000 )
b00000000000000000000000000000000 *
b00000000000000000000000000100100 1
b00000000000000000000000000100000 3
0;
b00000 <
b00000000000000000000000000000000 =
b00000000000000000000000000100100 @
b00000000000000000000000000010010 F
1e
#20
0e
#21
b00000000000000000000000000101000 1
b00000000000000000000000000100100 3
0>
b00000 ?
b00000000000000000000000000000000 @
b00000000000000000000000000100100 F
1e
#22
0e
#23
b00000000000000000000000000101100 1
b00000000000000000000000000101000 3
1e
#24
0e
#25
b00000000000000000000000000110000 1
b00000000000000000000000000101100 3
1e
#26
0e
#27
b00000000000000000000000000110100 1
b00000000000000000000000000110000 3
1e
#28
0e
#29
b00000000000000000000000000111000 1
b00000000000000000000000000110100 3
1e
#30
0e
#31
b00000000000000000000000000111100 1
b00000000000000000000000000111000 3
1e
#32
0e
#33
b00000000000000000000000001000000 1
b00000000000000000000000000111100 3
1e
#34
0e
#35
b00000000000000000000000001000100 1
b00000000000000000000000001000000 3
1e
#36
0e
#37
b00000000000000000000000001001000 1
b00000000000000000000000001000100 3
1e
#38
0e
#39
b00000000000000000000000001001100 1
b00000000000000000000000001001000 3
1e
#40
0e
#41
b00000000000000000000000001010000 1
b00000000000000000000000001001100 3
1e
#42
0e
#43
b00000000000000000000000001010100 1
b00000000000000000000000001010000 3
1e
#44
0e
#45
b00000000000000000000000001011000 1
b00000000000000000000000001010100 3
1e
#46
0e
#47
b00000000000000000000000001011100 1
b00000000000000000000000001011000 3
1e
#48
0e
#49
b00000000000000000000000001100000 1
b00000000000000000000000001011100 3
1e
#50
0e
#51
b00000000000000000000000001100100 1
b00000000000000000000000001100000 3
1e
#52
0e
#53
b00000000000000000000000001101000 1
b00000000000000000000000001100100 3
1e
#54
0e
#55
b00000000000000000000000001101100 1
b00000000000000000000000001101000 3
1e
#56
0e
#57
b00000000000000000000000001110000 1
b00000000000000000000000001101100 3
1e
#58
0e
#59
b00000000000000000000000001110100 1
b00000000000000000000000001110000 3
1e
#60
0e
#61
b00000000000000000000000001111000 1
b00000000000000000000000001110100 3
1e
#62
0e
#63
b00000000000000000000000001111100 1
b00000000000000000000000001111000 3
1e
#64
0e
#65
b00000000000000000000000010000000 1
b00000000000000000000000001111100 3
1e
#66
0e
#67
b00000000000000000000000010000100 1
b00000000000000000000000010000000 3
1e
#68
0e
#69
b00000000000000000000000010001000 1
b00000000000000000000000010000100 3
1e
#70
0e
#71
b00000000000000000000000010001100 1
b00000000000000000000000010001000 3
1e
#72
0e
#73
b00000000000000000000000010010000 1
b00000000000000000000000010001100 3
1e
#74
0e
#75
b00000000000000000000000010010100 1
b00000000000000000000000010010000 3
1e
#76
0e
#77
b00000000000000000000000010011000 1
b00000000000000000000000010010100 3
1e
#78
0e
#79
b00000000000000000000000010011100 1
b00000000000000000000000010011000 3
1e
#80
0e
#81
b00000000000000000000000010100000 1
b00000000000000000000000010011100 3
1e
#82
0e
#83
b00000000000000000000000010100100 1
b00000000000000000000000010100000 3
1e
#84
0e
#85
b00000000000000000000000010101000 1
b00000000000000000000000010100100 3
1e
#86
0e
#87
b00000000000000000000000010101100 1
b00000000000000000000000010101000 3
1e
#88
0e
#89
b00000000000000000000000010110000 1
b00000000000000000000000010101100 3
1e
#90
0e
#91
b00000000000000000000000010110100 1
b00000000000000000000000010110000 3
1e
#92
0e
#93
b00000000000000000000000010111000 1
b00000000000000000000000010110100 3
1e
#94
0e
#95
b00000000000000000000000010111100 1
b00000000000000000000000010111000 3
1e
#96
0e
#97
b00000000000000000000000011000000 1
b00000000000000000000000010111100 3
1e
#98
0e
#99
b00000000000000000000000011000100 1
b00000000000000000000000011000000 3
1e
#100
0e
#101
b00000000000000000000000011001000 1
b00000000000000000000000011000100 3
1e
#102
0e
#103
b00000000000000000000000011001100 1
b00000000000000000000000011001000 3
1e
#104
0e
#105
b00000000000000000000000011010000 1
b00000000000000000000000011001100 3
1e
#106
0e
#107
b00000000000000000000000011010100 1
b00000000000000000000000011010000 3
1e
#108
0e
#109
b00000000000000000000000011011000 1
b00000000000000000000000011010100 3
1e
#110
0e
#111
b00000000000000000000000011011100 1
b00000000000000000000000011011000 3
1e
#112
0e
#113
b00000000000000000000000011100000 1
b00000000000000000000000011011100 3
1e
#114
0e
#115
b00000000000000000000000011100100 1
b00000000000000000000000011100000 3
1e
#116
0e
#117
b00000000000000000000000011101000 1
b00000000000000000000000011100100 3
1e
#118
0e
#119
b00000000000000000000000011101100 1
b00000000000000000000000011101000 3
1e
#120
0e
#121
b00000000000000000000000011110000 1
b00000000000000000000000011101100 3
1e
#122
0e
#123
b00000000000000000000000011110100 1
b00000000000000000000000011110000 3
1e
#124
0e
#125
b00000000000000000000000011111000 1
b00000000000000000000000011110100 3
1e
#126
0e
#127
b00000000000000000000000011111100 1
b00000000000000000000000011111000 3
1e
#128
0e
#129
b00000000000000000000000100000000 1
b00000000000000000000000011111100 3
1e
#130
0e
#131
b00000000000000000000000100000100 1
b00000000000000000000000100000000 3
1e
#132
0e
#133
b00000000000000000000000100001000 1
b00000000000000000000000100000100 3
1e
#134
0e
#135
b00000000000000000000000100001100 1
b00000000000000000000000100001000 3
1e
#136
0e
#137
b00000000000000000000000100010000 1
b00000000000000000000000100001100 3
1e
#138
0e
#139
b00000000000000000000000100010100 1
b00000000000000000000000100010000 3
1e
#140
0e
#141
b00000000000000000000000100011000 1
b00000000000000000000000100010100 3
1e
#142
0e
#143
b00000000000000000000000100011100 1
b00000000000000000000000100011000 3
1e
#144
0e
#145
b00000000000000000000000100100000 1
b00000000000000000000000100011100 3
1e
#146
0e
#147
b00000000000000000000000100100100 1
b00000000000000000000000100100000 3
1e
#148
0e
#149
b00000000000000000000000100101000 1
b00000000000000000000000100100100 3
1e
#150
0e
#151
b00000000000000000000000100101100 1
b00000000000000000000000100101000 3
1e
#152
0e
#153
b00000000000000000000000100110000 1
b00000000000000000000000100101100 3
1e
#154
0e
#155
b00000000000000000000000100110100 1
b00000000000000000000000100110000 3
1e
#156
0e
#157
b00000000000000000000000100111000 1
b00000000000000000000000100110100 3
1e
#158
0e
#159
b00000000000000000000000100111100 1
b00000000000000000000000100111000 3
1e
#160
0e
#161
b00000000000000000000000101000000 1
b00000000000000000000000100111100 3
1e
#162
0e
#163
b00000000000000000000000101000100 1
b00000000000000000000000101000000 3
1e
#164
0e
#165
b00000000000000000000000101001000 1
b00000000000000000000000101000100 3
1e
#166
0e
#167
b00000000000000000000000101001100 1
b00000000000000000000000101001000 3
1e
#168
0e
#169
b00000000000000000000000101010000 1
b00000000000000000000000101001100 3
1e
#170
0e
#171
b00000000000000000000000101010100 1
b00000000000000000000000101010000 3
1e
#172
0e
#173
b00000000000000000000000101011000 1
b00000000000000000000000101010100 3
1e
#174
0e
#175
b00000000000000000000000101011100 1
b00000000000000000000000101011000 3
1e
#176
0e
#177
b00000000000000000000000101100000 1
b00000000000000000000000101011100 3
1e
#178
0e
#179
b00000000000000000000000101100100 1
b00000000000000000000000101100000 3
1e
#180
0e
#181
b00000000000000000000000101101000 1
b00000000000000000000000101100100 3
1e
#182
0e
#183
b00000000000000000000000101101100 1
b00000000000000000000000101101000 3
1e
#184
0e
#185
b00000000000000000000000101110000 1
b00000000000000000000000101101100 3
1e
#186
0e
#187
b00000000000000000000000101110100 1
b00000000000000000000000101110000 3
1e
#188
0e
#189
b00000000000000000000000101111000 1
b00000000000000000000000101110100 3
1e
#190
0e
#191
b00000000000000000000000101111100 1
b00000000000000000000000101111000 3
1e
#192
0e
#193
b00000000000000000000000110000000 1
b00000000000000000000000101111100 3
1e
#194
0e
#195
b00000000000000000000000110000100 1
b00000000000000000000000110000000 3
1e
#196
0e
#197
b00000000000000000000000110001000 1
b00000000000000000000000110000100 3
1e
#198
0e
#199
b00000000000000000000000110001100 1
b00000000000000000000000110001000 3
1e
#200
0e
#201
b00000000000000000000000110010000 1
b00000000000000000000000110001100 3
1e
#202
0e
#203
b00000000000000000000000110010100 1
b00000000000000000000000110010000 3
1e
#204
0e
#205
b00000000000000000000000110011000 1
b00000000000000000000000110010100 3
1e
#206
0e
#207
b00000000000000000000000110011100 1
b00000000000000000000000110011000 3
1e
#208
0e
#209
b00000000000000000000000110100000 1
b00000000000000000000000110011100 3
1e
#210
0e
#211
b00000000000000000000000110100100 1
b00000000000000000000000110100000 3
1e
#212
0e
#213
b00000000000000000000000110101000 1
b00000000000000000000000110100100 3
1e
#214
0e
#215
b00000000000000000000000110101100 1
b00000000000000000000000110101000 3
1e
#216
0e
#217
b00000000000000000000000110110000 1
b00000000000000000000000110101100 3
1e
#218
0e
#219
b00000000000000000000000110110100 1
b00000000000000000000000110110000 3
1e
#220
0e
#221
b00000000000000000000000110111000 1
b00000000000000000000000110110100 3
1e
#222
0e
#223
b00000000000000000000000110111100 1
b00000000000000000000000110111000 3
1e
#224
0e
#225
b00000000000000000000000111000000 1
b00000000000000000000000110111100 3
1e
#226
0e
#227
b00000000000000000000000111000100 1
b00000000000000000000000111000000 3
1e
#228
0e
#229
b00000000000000000000000111001000 1
b00000000000000000000000111000100 3
1e
#230
0e
#231
b00000000000000000000000111001100 1
b00000000000000000000000111001000 3
1e
#232
0e
#233
b00000000000000000000000111010000 1
b00000000000000000000000111001100 3
1e
#234
0e
#235
b00000000000000000000000111010100 1
b00000000000000000000000111010000 3
1e
#236
0e
#237
b00000000000000000000000111011000 1
b00000000000000000000000111010100 3
1e
#238
0e
#239
b00000000000000000000000111011100 1
b00000000000000000000000111011000 3
1e
#240
0e
#241
b00000000000000000000000111100000 1
b00000000000000000000000111011100 3
1e
#242
0e
#243
b00000000000000000000000111100100 1
b00000000000000000000000111100000 3
1e
#244
0e
#245
b00000000000000000000000111101000 1
b00000000000000000000000111100100 3
1e
#246
0e
#247
b00000000000000000000000111101100 1
b00000000000000000000000111101000 3
1e
#248
0e
#249
b00000000000000000000000111110000 1
b00000000000000000000000111101100 3
1e
#250
0e
#251
b00000000000000000000000111110100 1
b00000000000000000000000111110000 3
1e
#252
0e
#253
b00000000000000000000000111111000 1
b00000000000000000000000111110100 3
1e
#254
0e
#255
b00000000000000000000000111111100 1
b00000000000000000000000111111000 3
1e
#256
0e
#257
b00000000000000000000001000000000 1
b00000000000000000000000111111100 3
1e
#258
0e
#259
b00000000000000000000001000000100 1
b00000000000000000000001000000000 3
1e
#260
0e
#261
b00000000000000000000001000001000 1
b00000000000000000000001000000100 3
1e
#262
0e
#263
b00000000000000000000001000001100 1
b00000000000000000000001000001000 3
1e
#264
0e
#265
b00000000000000000000001000010000 1
b00000000000000000000001000001100 3
1e
#266
0e
#267
b00000000000000000000001000010100 1
b00000000000000000000001000010000 3
1e
#268
0e
#269
b00000000000000000000001000011000 1
b00000000000000000000001000010100 3
1e
#270
0e
#271
b00000000000000000000001000011100 1
b00000000000000000000001000011000 3
1e
#272
0e
#273
b00000000000000000000001000100000 1
b00000000000000000000001000011100 3
1e
#274
0e
#275
b00000000000000000000001000100100 1
b00000000000000000000001000100000 3
1e
#276
0e
#277
b00000000000000000000001000101000 1
b00000000000000000000001000100100 3
1e
#278
0e
#279
b00000000000000000000001000101100 1
b00000000000000000000001000101000 3
1e
#280
0e
#281
b00000000000000000000001000110000 1
b00000000000000000000001000101100 3
1e
#282
0e
#283
b00000000000000000000001000110100 1
b00000000000000000000001000110000 3
1e
#284
0e
#285
b00000000000000000000001000111000 1
b00000000000000000000001000110100 3
1e
#286
0e
#287
b00000000000000000000001000111100 1
b00000000000000000000001000111000 3
1e
#288
0e
#289
b00000000000000000000001001000000 1
b00000000000000000000001000111100 3
1e
#290
0e
#291
b00000000000000000000001001000100 1
b00000000000000000000001001000000 3
1e
#292
0e
#293
b00000000000000000000001001001000 1
b00000000000000000000001001000100 3
1e
#294
0e
#295
b00000000000000000000001001001100 1
b00000000000000000000001001001000 3
1e
#296
0e
#297
b00000000000000000000001001010000 1
b00000000000000000000001001001100 3
1e
#298
0e
#299
b00000000000000000000001001010100 1
b00000000000000000000001001010000 3
1e
#300
0e
#301
b00000000000000000000001001011000 1
b00000000000000000000001001010100 3
1e
#302
0e
#303
b00000000000000000000001001011100 1
b00000000000000000000001001011000 3
1e
#304
0e
#305
b00000000000000000000001001100000 1
b00000000000000000000001001011100 3
1e
#306
0e
#307
b00000000000000000000001001100100 1
b00000000000000000000001001100000 3
1e
#308
0e
#309
b00000000000000000000001001101000 1
b00000000000000000000001001100100 3
1e
#310
0e
#311
b00000000000000000000001001101100 1
b00000000000000000000001001101000 3
1e
#312
0e
#313
b00000000000000000000001001110000 1
b00000000000000000000001001101100 3
1e
#314
0e
#315
b00000000000000000000001001110100 1
b00000000000000000000001001110000 3
1e
#316
0e
#317
b00000000000000000000001001111000 1
b00000000000000000000001001110100 3
1e
#318
0e
#319
b00000000000000000000001001111100 1
b00000000000000000000001001111000 3
1e
#320
0e
#321
b00000000000000000000001010000000 1
b00000000000000000000001001111100 3
1e
#322
0e
#323
b00000000000000000000001010000100 1
b00000000000000000000001010000000 3
1e
#324
0e
#325
b00000000000000000000001010001000 1
b00000000000000000000001010000100 3
1e
#326
0e
#327
b00000000000000000000001010001100 1
b00000000000000000000001010001000 3
1e
#328
0e
#329
b00000000000000000000001010010000 1
b00000000000000000000001010001100 3
1e
#330
0e
#331
b00000000000000000000001010010100 1
b00000000000000000000001010010000 3
1e
#332
0e
#333
b00000000000000000000001010011000 1
b00000000000000000000001010010100 3
1e
#334
0e
#335
b00000000000000000000001010011100 1
b00000000000000000000001010011000 3
1e
#336
0e
#337
b00000000000000000000001010100000 1
b00000000000000000000001010011100 3
1e
#338
0e
#339
b00000000000000000000001010100100 1
b00000000000000000000001010100000 3
1e
#340
0e
#341
b00000000000000000000001010101000 1
b00000000000000000000001010100100 3
1e
#342
0e
#343
b00000000000000000000001010101100 1
b00000000000000000000001010101000 3
1e
#344
0e
#345
b00000000000000000000001010110000 1
b00000000000000000000001010101100 3
1e
#346
0e
#347
b00000000000000000000001010110100 1
b00000000000000000000001010110000 3
1e
#348
0e
#349
b00000000000000000000001010111000 1
b00000000000000000000001010110100 3
1e
#350
0e
#351
b00000000000000000000001010111100 1
b00000000000000000000001010111000 3
1e
#352
0e
#353
b00000000000000000000001011000000 1
b00000000000000000000001010111100 3
1e
#354
0e
#355
b00000000000000000000001011000100 1
b00000000000000000000001011000000 3
1e
#356
0e
#357
b00000000000000000000001011001000 1
b00000000000000000000001011000100 3
1e
#358
0e
#359
b00000000000000000000001011001100 1
b00000000000000000000001011001000 3
1e
#360
0e
#361
b00000000000000000000001011010000 1
b00000000000000000000001011001100 3
1e
#362
0e
#363
b00000000000000000000001011010100 1
b00000000000000000000001011010000 3
1e
#364
0e
#365
b00000000000000000000001011011000 1
b00000000000000000000001011010100 3
1e
#366
0e
#367
b00000000000000000000001011011100 1
b00000000000000000000001011011000 3
1e
#368
0e
#369
b00000000000000000000001011100000 1
b00000000000000000000001011011100 3
1e
#370
0e
#371
b00000000000000000000001011100100 1
b00000000000000000000001011100000 3
1e
#372
0e
#373
b00000000000000000000001011101000 1
b00000000000000000000001011100100 3
1e
#374
0e
#375
b00000000000000000000001011101100 1
b00000000000000000000001011101000 3
1e
#376
0e
#377
b00000000000000000000001011110000 1
b00000000000000000000001011101100 3
1e
#378
0e
#379
b00000000000000000000001011110100 1
b00000000000000000000001011110000 3
1e
#380
0e
#381
b00000000000000000000001011111000 1
b00000000000000000000001011110100 3
1e
#382
0e
#383
b00000000000000000000001011111100 1
b00000000000000000000001011111000 3
1e
#384
0e
#385
b00000000000000000000001100000000 1
b00000000000000000000001011111100 3
1e
#386
0e
#387
b00000000000000000000001100000100 1
b00000000000000000000001100000000 3
1e
#388
0e
#389
b00000000000000000000001100001000 1
b00000000000000000000001100000100 3
1e
#390
0e
#391
b00000000000000000000001100001100 1
b00000000000000000000001100001000 3
1e
#392
0e
#393
b00000000000000000000001100010000 1
b00000000000000000000001100001100 3
1e
#394
0e
#395
b00000000000000000000001100010100 1
b00000000000000000000001100010000 3
1e
#396
0e
#397
b00000000000000000000001100011000 1
b00000000000000000000001100010100 3
1e
#398
0e
#399
b00000000000000000000001100011100 1
b00000000000000000000001100011000 3
1e
#400
0e
#401
b00000000000000000000001100100000 1
b00000000000000000000001100011100 3
1e
#402
0e
#403
b00000000000000000000001100100100 1
b00000000000000000000001100100000 3
1e
#404
0e
#405
b00000000000000000000001100101000 1
b00000000000000000000001100100100 3
1e
#406
0e
#407
b00000000000000000000001100101100 1
b00000000000000000000001100101000 3
1e
#408
0e
#409
b00000000000000000000001100110000 1
b00000000000000000000001100101100 3
1e
#410
0e
#411
b00000000000000000000001100110100 1
b00000000000000000000001100110000 3
1e
#412
0e
#413
b00000000000000000000001100111000 1
b00000000000000000000001100110100 3
1e
#414
0e
#415
b00000000000000000000001100111100 1
b00000000000000000000001100111000 3
1e
#416
0e
#417
b00000000000000000000001101000000 1
b00000000000000000000001100111100 3
1e
#418
0e
#419
b00000000000000000000001101000100 1
b00000000000000000000001101000000 3
1e
#420
0e
